{
  "project_info": {
    "project_number": "620360353543",
    "firebase_url": "https://eventor-b0882.firebaseio.com",
    "project_id": "eventor-b0882",
    "storage_bucket": "eventor-b0882.appspot.com"
  },
  "client": [
    {
      "client_info": {
        "mobilesdk_app_id": "1:620360353543:android:57a3ec1f363f7c6daae7a2",
        "android_client_info": {
          "package_name": "com.ferit.okpp.eventor"
        }
      },
      "oauth_client": [
        {
          "client_id": "620360353543-fpl3epvkjjc44shoh3curtjf57kvpjoc.apps.googleusercontent.com",
          "client_type": 3
        }
      ],
      "api_key": [
        {
          "current_key": "AIzaSyAwzZ4TozUmchIeGjX1h4zkha1e4niZo1k"
        }
      ],
      "services": {
        "appinvite_service": {
          "other_platform_oauth_client": [
            {
              "client_id": "620360353543-fpl3epvkjjc44shoh3curtjf57kvpjoc.apps.googleusercontent.com",
              "client_type": 3
            }
          ]
        }
      }
    }
  ],
  "configuration_version": "1"
}